<?xml version="1.0" encoding="utf-8"?>
<!-- Generator: Adobe Illustrator 22.1.0, SVG Export Plug-In . SVG Version: 6.00 Build 0)  -->
<svg version="1.1" id="Capa_1" xmlns="http://www.w3.org/2000/svg" xmlns:xlink="http://www.w3.org/1999/xlink" x="0px" y="0px"
	 viewBox="0 0 34 30" style="enable-background:new 0 0 34 30;" xml:space="preserve">
<style type="text/css">
	.st0{opacity:0.4;}
	.st1{fill:#1A2346;}
</style>
<g class="st0">
	<g>
		<path class="st1" d="M13.6,3.9c1.3,1.3,1.9,2.9,1.9,5c0,1-0.1,2-0.4,2.9c-0.3,1-0.7,2.4-1.5,4.3L9.4,28H2.6l3.4-12.9
			c-1.2-0.4-2.2-1.2-2.9-2.3c-0.7-1.1-1-2.4-1-3.9c0-2,0.6-3.7,1.9-5C5.2,2.7,6.8,2,8.8,2C10.7,2,12.4,2.7,13.6,3.9z M31.4,3.9
			c1.3,1.3,1.9,2.9,1.9,5c0,1-0.1,2-0.4,2.9c-0.3,1-0.7,2.4-1.5,4.3L27.2,28h-6.8l3.4-12.9c-1.2-0.4-2.2-1.2-2.9-2.3
			c-0.7-1.1-1-2.4-1-3.9c0-2,0.6-3.7,1.9-5C23,2.7,24.6,2,26.6,2C28.5,2,30.1,2.7,31.4,3.9z"/>
	</g>
</g>
</svg>
