<?xml version="1.0" encoding="utf-8"?>
<!-- Generator: Adobe Illustrator 22.1.0, SVG Export Plug-In . SVG Version: 6.00 Build 0)  -->
<svg version="1.1" id="Capa_1" xmlns="http://www.w3.org/2000/svg" xmlns:xlink="http://www.w3.org/1999/xlink" x="0px" y="0px"
	 viewBox="0 0 34 30" style="enable-background:new 0 0 34 30;" xml:space="preserve">
<style type="text/css">
	.st0{opacity:0.4;}
	.st1{fill:#1A2346;}
</style>
<g class="st0">
	<g>
		<path class="st1" d="M13.5,17.7c0.7,1.1,1,2.4,1,3.9c0,2-0.6,3.7-1.9,5c-1.3,1.3-2.9,1.9-4.8,1.9c-2,0-3.7-0.6-5-1.9
			c-1.3-1.3-1.9-2.9-1.9-5c0-1,0.1-2,0.4-2.9c0.3-1,0.7-2.4,1.5-4.3L7.3,2.5H14l-3.4,12.8C11.9,15.8,12.8,16.6,13.5,17.7z
			 M31.3,17.7c0.7,1.1,1,2.4,1,3.9c0,2-0.6,3.7-1.9,5c-1.3,1.3-2.9,1.9-4.8,1.9c-2,0-3.7-0.6-5-1.9c-1.3-1.3-1.9-2.9-1.9-5
			c0-1,0.1-2,0.4-2.9c0.3-1,0.7-2.4,1.5-4.3l4.4-11.9h6.7l-3.4,12.8C29.7,15.8,30.6,16.6,31.3,17.7z"/>
	</g>
</g>
</svg>
